#VRML V2.0 utf8
#Exported from Wings 3D 1.5.3
DEF spring1 Transform {
  children [
    Shape {
      appearance Appearance {
        material DEF default Material {
          diffuseColor 0.7898538076923077 0.8133333333333334 0.6940444444444445
          emissiveColor 0.0 0.0 0.0
          specularColor 0.0 0.0 0.0
          ambientIntensity 0.765743861823362
          transparency 0.0
          shininess 0.0
        }
      }
      geometry IndexedFaceSet {
        normalPerVertex TRUE
        colorPerVertex TRUE
        coord Coordinate { point [
          1.0 0.0 0.0,
          0.9324722294043558 0.05 0.3612416661871529,
          0.7390089172206591 0.1 0.6736956436465572,
          0.4457383557765383 0.15000000000000002 0.8951632913550623,
          0.09226835946330202 0.2 0.9957341762950345,
          -0.2736629900720829 0.25 0.961825643172819,
          -0.6026346363792563 0.30000000000000004 0.7980172272802396,
          -0.8502171357296142 0.35000000000000003 0.5264321628773557,
          -0.9829730996839018 0.4 0.18374951781657037,
          -0.9829730996839018 0.45 -0.18374951781657012,
          -0.8502171357296141 0.5 -0.5264321628773558,
          -0.6026346363792565 0.55 -0.7980172272802394,
          -0.2736629900720831 0.6000000000000001 -0.961825643172819,
          0.09226835946330154 0.65 -0.9957341762950346,
          0.44573835577653853 0.7000000000000001 -0.8951632913550622,
          0.7390089172206592 0.75 -0.6736956436465571,
          0.9324722294043558 0.8 -0.36124166618715303,
          1.0 0.8500000000000001 -2.4492935982947064e-16,
          0.9324722294043559 0.9 0.3612416661871526,
          0.7390089172206589 0.9500000000000001 0.6736956436465574,
          0.44573835577653814 1.0 0.8951632913550623,
          0.09226835946330203 1.05 0.9957341762950345,
          -0.27366299007208267 1.1 0.9618256431728192,
          -0.6026346363792567 1.1500000000000001 0.7980172272802392,
          -0.8502171357296139 1.2000000000000002 0.5264321628773563,
          -0.9829730996839018 1.25 0.18374951781657017,
          -0.9829730996839019 1.3 -0.18374951781656945,
          -0.8502171357296142 1.35 -0.5264321628773556,
          -0.602634636379256 1.4000000000000001 -0.7980172272802398,
          -0.2736629900720834 1.4500000000000002 -0.9618256431728189,
          0.09226835946330218 1.5 -0.9957341762950345,
          0.4457383557765375 1.55 -0.8951632913550627,
          0.739008917220659 1.6 -0.6736956436465573,
          0.932472229404356 1.6500000000000001 -0.3612416661871524,
          1.0 1.7000000000000002 -4.898587196589413e-16,
          0.9324722294043557 1.75 0.36124166618715314,
          0.7390089172206596 1.8 0.6736956436465567,
          0.44573835577653836 1.85 0.8951632913550622,
          0.09226835946330139 1.9000000000000001 0.9957341762950346,
          -0.27366299007208245 1.9500000000000002 0.9618256431728192,
          -0.6026346363792566 2.0 0.7980172272802394,
          -0.8502171357296138 2.0500000000000003 0.5264321628773565,
          -0.9829730996839018 2.1 0.18374951781657042,
          -0.9829730996839017 2.15 -0.18374951781657095,
          -0.8502171357296143 2.2 -0.5264321628773554,
          -0.6026346363792576 2.25 -0.7980172272802386,
          -0.2736629900720819 2.3000000000000003 -0.9618256431728194,
          0.09226835946330195 2.35 -0.9957341762950346,
          0.44573835577653725 2.4000000000000004 -0.8951632913550628,
          0.7390089172206601 2.45 -0.6736956436465562,
          0.9324722294043559 2.5 -0.36124166618715264,
          0.875 0.21650635094610965 0.0,
          0.8159132007288113 0.26650635094610964 0.3160864579137588,
          0.6466328025680768 0.3165063509461097 0.5894836881907376,
          0.390021061304471 0.36650635094610967 0.7832678799356796,
          0.08073481453038926 0.41650635094610966 0.8712674042581552,
          -0.23945511631307254 0.46650635094610965 0.8415974377762167,
          -0.5273053068318493 0.5165063509461096 0.6982650738702096,
          -0.7439399937634125 0.5665063509461097 0.46062814251768625,
          -0.8601014622234141 0.6165063509461097 0.16078082808949906,
          -0.8601014622234141 0.6665063509461097 -0.16078082808949884,
          -0.7439399937634124 0.7165063509461096 -0.46062814251768636,
          -0.5273053068318494 0.7665063509461096 -0.6982650738702094,
          -0.23945511631307273 0.8165063509461097 -0.8415974377762167,
          0.08073481453038885 0.8665063509461097 -0.8712674042581553,
          0.39002106130447123 0.9165063509461098 -0.7832678799356795,
          0.6466328025680768 0.9665063509461096 -0.5894836881907375,
          0.8159132007288113 1.0165063509461096 -0.3160864579137589,
          0.875 1.0665063509461097 -2.143131898507868e-16,
          0.8159132007288115 1.1165063509461097 0.3160864579137585,
          0.6466328025680765 1.1665063509461098 0.5894836881907377,
          0.3900210613044709 1.2165063509461096 0.7832678799356796,
          0.08073481453038928 1.2665063509461096 0.8712674042581552,
          -0.23945511631307234 1.3165063509461097 0.8415974377762168,
          -0.5273053068318496 1.3665063509461097 0.6982650738702093,
          -0.7439399937634121 1.4165063509461098 0.46062814251768675,
          -0.8601014622234141 1.4665063509461096 0.1607808280894989,
          -0.8601014622234142 1.5165063509461096 -0.16078082808949828,
          -0.7439399937634125 1.5665063509461097 -0.46062814251768613,
          -0.527305306831849 1.6165063509461097 -0.6982650738702099,
          -0.23945511631307298 1.6665063509461098 -0.8415974377762165,
          0.08073481453038941 1.7165063509461096 -0.8712674042581552,
          0.3900210613044703 1.7665063509461096 -0.7832678799356798,
          0.6466328025680766 1.8165063509461097 -0.5894836881907377,
          0.8159132007288116 1.8665063509461097 -0.3160864579137584,
          0.875 1.9165063509461098 -4.286263797015736e-16,
          0.8159132007288112 1.9665063509461096 0.316086457913759,
          0.6466328025680772 2.0165063509461096 0.589483688190737,
          0.39002106130447106 2.06650635094611 0.7832678799356795,
          0.08073481453038872 2.1165063509461097 0.8712674042581553,
          -0.23945511631307215 2.16650635094611 0.8415974377762168,
          -0.5273053068318495 2.21650635094611 0.6982650738702094,
          -0.743939993763412 2.26650635094611 0.4606281425176869,
          -0.8601014622234141 2.31650635094611 0.16078082808949912,
          -0.860101462223414 2.3665063509461097 -0.1607808280894996,
          -0.7439399937634126 2.41650635094611 -0.46062814251768597,
          -0.5273053068318504 2.46650635094611 -0.6982650738702088,
          -0.23945511631307165 2.51650635094611 -0.841597437776217,
          0.0807348145303892 2.56650635094611 -0.8712674042581553,
          0.3900210613044701 2.61650635094611 -0.7832678799356799,
          0.6466328025680775 2.66650635094611 -0.5894836881907367,
          0.8159132007288115 2.71650635094611 -0.31608645791375856,
          0.625 0.21650635094610968 0.0,
          0.5827951433777224 0.2665063509461097 0.22577604136697058,
          0.46188057326291193 0.3165063509461097 0.42105977727909827,
          0.27858647236033646 0.3665063509461097 0.559477057096914,
          0.05766772466456376 0.41650635094610966 0.6223338601843965,
          -0.1710393687950518 0.4665063509461097 0.6011410269830119,
          -0.37664664773703516 0.5165063509461097 0.49876076705014977,
          -0.5313857098310089 0.5665063509461097 0.32902010179834734,
          -0.6143581873024386 0.6165063509461097 0.11484344863535648,
          -0.6143581873024386 0.6665063509461097 -0.11484344863535632,
          -0.5313857098310089 0.7165063509461097 -0.3290201017983474,
          -0.3766466477370353 0.7665063509461097 -0.4987607670501496,
          -0.17103936879505194 0.8165063509461098 -0.6011410269830119,
          0.05766772466456346 0.8665063509461097 -0.6223338601843966,
          0.27858647236033657 0.9165063509461098 -0.5594770570969139,
          0.461880573262912 0.9665063509461097 -0.42105977727909816,
          0.5827951433777224 1.0165063509461096 -0.22577604136697066,
          0.625 1.0665063509461097 -1.5308084989341916e-16,
          0.5827951433777224 1.1165063509461097 0.22577604136697038,
          0.46188057326291176 1.1665063509461098 0.4210597772790984,
          0.27858647236033635 1.2165063509461096 0.559477057096914,
          0.05766772466456377 1.2665063509461096 0.6223338601843965,
          -0.17103936879505166 1.3165063509461097 0.601141026983012,
          -0.3766466477370355 1.3665063509461097 0.4987607670501495,
          -0.5313857098310086 1.4165063509461098 0.3290201017983477,
          -0.6143581873024386 1.4665063509461096 0.11484344863535637,
          -0.6143581873024386 1.5165063509461096 -0.11484344863535591,
          -0.5313857098310089 1.5665063509461097 -0.3290201017983473,
          -0.376646647737035 1.6165063509461097 -0.4987607670501499,
          -0.1710393687950521 1.6665063509461098 -0.6011410269830119,
          0.057667724664563866 1.7165063509461096 -0.6223338601843965,
          0.2785864723603359 1.7665063509461096 -0.5594770570969142,
          0.4618805732629119 1.8165063509461097 -0.4210597772790983,
          0.5827951433777225 1.8665063509461097 -0.22577604136697027,
          0.625 1.9165063509461098 -3.061616997868383e-16,
          0.5827951433777223 1.9665063509461096 0.22577604136697071,
          0.46188057326291226 2.0165063509461096 0.42105977727909794,
          0.27858647236033646 2.06650635094611 0.5594770570969139,
          0.057667724664563366 2.1165063509461097 0.6223338601843966,
          -0.17103936879505152 2.16650635094611 0.601141026983012,
          -0.3766466477370354 2.21650635094611 0.4987607670501496,
          -0.5313857098310086 2.26650635094611 0.32902010179834784,
          -0.6143581873024386 2.31650635094611 0.11484344863535652,
          -0.6143581873024385 2.3665063509461097 -0.11484344863535684,
          -0.531385709831009 2.41650635094611 -0.3290201017983471,
          -0.37664664773703604 2.46650635094611 -0.49876076705014916,
          -0.1710393687950512 2.51650635094611 -0.6011410269830121,
          0.05766772466456371 2.56650635094611 -0.6223338601843966,
          0.2785864723603358 2.61650635094611 -0.5594770570969142,
          0.46188057326291254 2.66650635094611 -0.4210597772790976,
          0.5827951433777224 2.71650635094611 -0.2257760413669704,
          0.5 3.061616997868383e-17 0.0,
          0.4662361147021779 0.05000000000000003 0.18062083309357646,
          0.36950445861032954 0.10000000000000003 0.3368478218232786,
          0.22286917788826915 0.15000000000000005 0.44758164567753117,
          0.04613417973165101 0.20000000000000004 0.49786708814751723,
          -0.13683149503604145 0.25000000000000006 0.4809128215864095,
          -0.30131731818962815 0.3000000000000001 0.3990086136401198,
          -0.4251085678648071 0.3500000000000001 0.26321608143867786,
          -0.4914865498419509 0.4000000000000001 0.09187475890828518,
          -0.4914865498419509 0.45000000000000007 -0.09187475890828506,
          -0.42510856786480705 0.5 -0.2632160814386779,
          -0.30131731818962826 0.55 -0.3990086136401197,
          -0.13683149503604156 0.6000000000000001 -0.4809128215864095,
          0.04613417973165077 0.65 -0.4978670881475173,
          0.22286917788826927 0.7000000000000001 -0.4475816456775311,
          0.3695044586103296 0.75 -0.33684782182327855,
          0.4662361147021779 0.8 -0.18062083309357652,
          0.5 0.8500000000000001 -1.2246467991473532e-16,
          0.46623611470217796 0.9 0.1806208330935763,
          0.36950445861032943 0.9500000000000001 0.3368478218232787,
          0.22286917788826907 1.0 0.44758164567753117,
          0.046134179731651015 1.05 0.49786708814751723,
          -0.13683149503604133 1.1 0.4809128215864096,
          -0.30131731818962837 1.1500000000000001 0.3990086136401196,
          -0.42510856786480694 1.2000000000000002 0.26321608143867814,
          -0.4914865498419509 1.25 0.09187475890828509,
          -0.49148654984195095 1.3 -0.09187475890828473,
          -0.4251085678648071 1.35 -0.2632160814386778,
          -0.301317318189628 1.4000000000000001 -0.3990086136401199,
          -0.1368314950360417 1.4500000000000002 -0.48091282158640947,
          0.04613417973165109 1.5 -0.49786708814751723,
          0.22286917788826874 1.55 -0.44758164567753134,
          0.3695044586103295 1.6 -0.33684782182327866,
          0.466236114702178 1.6500000000000001 -0.1806208330935762,
          0.5 1.7000000000000002 -2.4492935982947064e-16,
          0.46623611470217785 1.75 0.18062083309357657,
          0.3695044586103298 1.8 0.3368478218232783,
          0.22286917788826918 1.85 0.4475816456775311,
          0.046134179731650696 1.9000000000000001 0.4978670881475173,
          -0.13683149503604122 1.9500000000000002 0.4809128215864096,
          -0.3013173181896283 2.0 0.3990086136401197,
          -0.4251085678648069 2.0500000000000003 0.26321608143867825,
          -0.4914865498419509 2.1 0.09187475890828521,
          -0.49148654984195084 2.15 -0.09187475890828548,
          -0.42510856786480716 2.2 -0.2632160814386777,
          -0.3013173181896288 2.25 -0.3990086136401193,
          -0.13683149503604095 2.3000000000000003 -0.4809128215864097,
          0.04613417973165097 2.35 -0.4978670881475173,
          0.22286917788826863 2.4000000000000004 -0.4475816456775314,
          0.36950445861033004 2.45 -0.3368478218232781,
          0.46623611470217796 2.5 -0.18062083309357632,
          0.6249999999999999 -0.2165063509461096 0.0,
          0.5827951433777223 -0.1665063509461096 0.22577604136697055,
          0.4618805732629119 -0.11650635094610959 0.42105977727909816,
          0.2785864723603364 -0.06650635094610957 0.5594770570969139,
          0.05766772466456375 -0.016506350946109583 0.6223338601843964,
          -0.17103936879505177 0.033493649053890406 0.6011410269830118,
          -0.3766466477370351 0.08349364905389045 0.49876076705014966,
          -0.5313857098310087 0.13349364905389044 0.3290201017983473,
          -0.6143581873024385 0.18349364905389043 0.11484344863535646,
          -0.6143581873024385 0.23349364905389042 -0.11484344863535631,
          -0.5313857098310087 0.2834936490538904 -0.32902010179834734,
          -0.37664664773703527 0.33349364905389045 -0.49876076705014954,
          -0.1710393687950519 0.3834936490538905 -0.6011410269830118,
          0.057667724664563456 0.43349364905389043 -0.6223338601843965,
          0.2785864723603365 0.4834936490538905 -0.5594770570969138,
          0.46188057326291193 0.5334936490538904 -0.4210597772790981,
          0.5827951433777223 0.5834936490538905 -0.2257760413669706,
          0.6249999999999999 0.6334936490538905 -1.5308084989341913e-16,
          0.5827951433777223 0.6834936490538904 0.22577604136697033,
          0.4618805732629117 0.7334936490538905 0.4210597772790983,
          0.2785864723603363 0.7834936490538904 0.5594770570969139,
          0.05766772466456376 0.8334936490538905 0.6223338601843964,
          -0.17103936879505163 0.8834936490538905 0.6011410269830119,
          -0.3766466477370354 0.9334936490538905 0.4987607670501494,
          -0.5313857098310086 0.9834936490538906 0.3290201017983476,
          -0.6143581873024385 1.0334936490538904 0.11484344863535634,
          -0.6143581873024386 1.0834936490538905 -0.1148434486353559,
          -0.5313857098310087 1.1334936490538905 -0.3290201017983472,
          -0.37664664773703493 1.1834936490538905 -0.4987607670501498,
          -0.17103936879505208 1.2334936490538906 -0.6011410269830118,
          0.05766772466456385 1.2834936490538904 -0.6223338601843964,
          0.27858647236033585 1.3334936490538905 -0.5594770570969141,
          0.46188057326291176 1.3834936490538905 -0.42105977727909827,
          0.5827951433777224 1.4334936490538905 -0.22577604136697021,
          0.6249999999999999 1.4834936490538906 -3.0616169978683826e-16,
          0.5827951433777222 1.5334936490538904 0.2257760413669707,
          0.4618805732629122 1.5834936490538905 0.4210597772790978,
          0.2785864723603364 1.6334936490538905 0.5594770570969138,
          0.05766772466456336 1.6834936490538905 0.6223338601843965,
          -0.1710393687950515 1.7334936490538906 0.6011410269830119,
          -0.3766466477370353 1.7834936490538904 0.49876076705014954,
          -0.5313857098310085 1.8334936490538907 0.32902010179834773,
          -0.6143581873024385 1.8834936490538905 0.11484344863535649,
          -0.6143581873024384 1.9334936490538903 -0.11484344863535682,
          -0.5313857098310089 1.9834936490538906 -0.32902010179834706,
          -0.37664664773703593 2.0334936490538906 -0.49876076705014905,
          -0.17103936879505116 2.0834936490538905 -0.601141026983012,
          0.057667724664563706 2.1334936490538903 -0.6223338601843965,
          0.27858647236033574 2.183493649053891 -0.5594770570969141,
          0.4618805732629125 2.233493649053891 -0.42105977727909755,
          0.5827951433777223 2.2834936490538906 -0.22577604136697035,
          0.8749999999999998 -0.21650635094610976 0.0,
          0.8159132007288111 -0.16650635094610977 0.3160864579137587,
          0.6466328025680765 -0.11650635094610975 0.5894836881907374,
          0.3900210613044709 -0.06650635094610974 0.7832678799356794,
          0.08073481453038925 -0.01650635094610975 0.871267404258155,
          -0.23945511631307248 0.03349364905389024 0.8415974377762164,
          -0.5273053068318492 0.08349364905389028 0.6982650738702095,
          -0.7439399937634122 0.13349364905389027 0.46062814251768613,
          -0.8601014622234139 0.18349364905389026 0.16078082808949903,
          -0.8601014622234139 0.23349364905389025 -0.1607808280894988,
          -0.7439399937634121 0.28349364905389024 -0.46062814251768625,
          -0.5273053068318493 0.3334936490538903 -0.6982650738702093,
          -0.23945511631307267 0.38349364905389033 -0.8415974377762164,
          0.08073481453038883 0.43349364905389026 -0.8712674042581551,
          0.3900210613044711 0.4834936490538903 -0.7832678799356793,
          0.6466328025680766 0.5334936490538902 -0.5894836881907373,
          0.8159132007288111 0.5834936490538902 -0.31608645791375883,
          0.8749999999999998 0.6334936490538903 -2.1431318985078676e-16,
          0.8159132007288112 0.6834936490538903 0.31608645791375845,
          0.6466328025680763 0.7334936490538904 0.5894836881907376,
          0.3900210613044708 0.7834936490538902 0.7832678799356794,
          0.08073481453038926 0.8334936490538902 0.871267404258155,
          -0.23945511631307229 0.8834936490538903 0.8415974377762165,
          -0.5273053068318495 0.9334936490538903 0.6982650738702091,
          -0.7439399937634119 0.9834936490538904 0.46062814251768663,
          -0.8601014622234139 1.0334936490538902 0.16078082808949887,
          -0.860101462223414 1.0834936490538902 -0.16078082808949823,
          -0.7439399937634122 1.1334936490538903 -0.460628142517686,
          -0.5273053068318488 1.1834936490538903 -0.6982650738702096,
          -0.2394551163130729 1.2334936490538904 -0.8415974377762163,
          0.08073481453038939 1.2834936490538902 -0.871267404258155,
          0.3900210613044702 1.3334936490538902 -0.7832678799356796,
          0.6466328025680764 1.3834936490538903 -0.5894836881907375,
          0.8159132007288113 1.4334936490538903 -0.3160864579137583,
          0.8749999999999998 1.4834936490538904 -4.286263797015735e-16,
          0.815913200728811 1.5334936490538902 0.31608645791375894,
          0.646632802568077 1.5834936490538902 0.5894836881907369,
          0.39002106130447095 1.6334936490538903 0.7832678799356793,
          0.0807348145303887 1.6834936490538903 0.8712674042581551,
          -0.2394551163130721 1.7334936490538904 0.8415974377762165,
          -0.5273053068318494 1.7834936490538902 0.6982650738702093,
          -0.7439399937634119 1.8334936490538905 0.4606281425176868,
          -0.8601014622234139 1.8834936490538903 0.1607808280894991,
          -0.8601014622234138 1.93349364905389 -0.16078082808949953,
          -0.7439399937634124 1.9834936490538904 -0.46062814251768586,
          -0.5273053068318503 2.03349364905389 -0.6982650738702086,
          -0.2394551163130716 2.0834936490538905 -0.8415974377762168,
          0.08073481453038918 2.1334936490538903 -0.8712674042581551,
          0.39002106130447 2.1834936490538905 -0.7832678799356797,
          0.6466328025680774 2.2334936490538904 -0.5894836881907365,
          0.8159132007288112 2.28349364905389 -0.3160864579137585 ] }
        coordIndex [
          0, 1, 256, 255, -1,
          0, 51, 52, 1, -1,
          0, 255, 204, 153, 102, 51, -1,
          1, 2, 257, 256, -1,
          1, 52, 53, 2, -1,
          2, 3, 258, 257, -1,
          2, 53, 54, 3, -1,
          3, 4, 259, 258, -1,
          3, 54, 55, 4, -1,
          4, 5, 260, 259, -1,
          4, 55, 56, 5, -1,
          5, 6, 261, 260, -1,
          5, 56, 57, 6, -1,
          6, 7, 262, 261, -1,
          6, 57, 58, 7, -1,
          7, 8, 263, 262, -1,
          7, 58, 59, 8, -1,
          8, 9, 264, 263, -1,
          8, 59, 60, 9, -1,
          9, 10, 265, 264, -1,
          9, 60, 61, 10, -1,
          10, 11, 266, 265, -1,
          10, 61, 62, 11, -1,
          11, 12, 267, 266, -1,
          11, 62, 63, 12, -1,
          12, 13, 268, 267, -1,
          12, 63, 64, 13, -1,
          13, 14, 269, 268, -1,
          13, 64, 65, 14, -1,
          14, 15, 270, 269, -1,
          14, 65, 66, 15, -1,
          15, 16, 271, 270, -1,
          15, 66, 67, 16, -1,
          16, 17, 272, 271, -1,
          16, 67, 68, 17, -1,
          17, 18, 273, 272, -1,
          17, 68, 69, 18, -1,
          18, 19, 274, 273, -1,
          18, 69, 70, 19, -1,
          19, 20, 275, 274, -1,
          19, 70, 71, 20, -1,
          20, 21, 276, 275, -1,
          20, 71, 72, 21, -1,
          21, 22, 277, 276, -1,
          21, 72, 73, 22, -1,
          22, 23, 278, 277, -1,
          22, 73, 74, 23, -1,
          23, 24, 279, 278, -1,
          23, 74, 75, 24, -1,
          24, 25, 280, 279, -1,
          24, 75, 76, 25, -1,
          25, 26, 281, 280, -1,
          25, 76, 77, 26, -1,
          26, 27, 282, 281, -1,
          26, 77, 78, 27, -1,
          27, 28, 283, 282, -1,
          27, 78, 79, 28, -1,
          28, 29, 284, 283, -1,
          28, 79, 80, 29, -1,
          29, 30, 285, 284, -1,
          29, 80, 81, 30, -1,
          30, 31, 286, 285, -1,
          30, 81, 82, 31, -1,
          31, 32, 287, 286, -1,
          31, 82, 83, 32, -1,
          32, 33, 288, 287, -1,
          32, 83, 84, 33, -1,
          33, 34, 289, 288, -1,
          33, 84, 85, 34, -1,
          34, 35, 290, 289, -1,
          34, 85, 86, 35, -1,
          35, 36, 291, 290, -1,
          35, 86, 87, 36, -1,
          36, 37, 292, 291, -1,
          36, 87, 88, 37, -1,
          37, 38, 293, 292, -1,
          37, 88, 89, 38, -1,
          38, 39, 294, 293, -1,
          38, 89, 90, 39, -1,
          39, 40, 295, 294, -1,
          39, 90, 91, 40, -1,
          40, 41, 296, 295, -1,
          40, 91, 92, 41, -1,
          41, 42, 297, 296, -1,
          41, 92, 93, 42, -1,
          42, 43, 298, 297, -1,
          42, 93, 94, 43, -1,
          43, 44, 299, 298, -1,
          43, 94, 95, 44, -1,
          44, 45, 300, 299, -1,
          44, 95, 96, 45, -1,
          45, 46, 301, 300, -1,
          45, 96, 97, 46, -1,
          46, 47, 302, 301, -1,
          46, 97, 98, 47, -1,
          47, 48, 303, 302, -1,
          47, 98, 99, 48, -1,
          48, 49, 304, 303, -1,
          48, 99, 100, 49, -1,
          49, 50, 305, 304, -1,
          49, 100, 101, 50, -1,
          50, 101, 152, 203, 254, 305, -1,
          51, 102, 103, 52, -1,
          52, 103, 104, 53, -1,
          53, 104, 105, 54, -1,
          54, 105, 106, 55, -1,
          55, 106, 107, 56, -1,
          56, 107, 108, 57, -1,
          57, 108, 109, 58, -1,
          58, 109, 110, 59, -1,
          59, 110, 111, 60, -1,
          60, 111, 112, 61, -1,
          61, 112, 113, 62, -1,
          62, 113, 114, 63, -1,
          63, 114, 115, 64, -1,
          64, 115, 116, 65, -1,
          65, 116, 117, 66, -1,
          66, 117, 118, 67, -1,
          67, 118, 119, 68, -1,
          68, 119, 120, 69, -1,
          69, 120, 121, 70, -1,
          70, 121, 122, 71, -1,
          71, 122, 123, 72, -1,
          72, 123, 124, 73, -1,
          73, 124, 125, 74, -1,
          74, 125, 126, 75, -1,
          75, 126, 127, 76, -1,
          76, 127, 128, 77, -1,
          77, 128, 129, 78, -1,
          78, 129, 130, 79, -1,
          79, 130, 131, 80, -1,
          80, 131, 132, 81, -1,
          81, 132, 133, 82, -1,
          82, 133, 134, 83, -1,
          83, 134, 135, 84, -1,
          84, 135, 136, 85, -1,
          85, 136, 137, 86, -1,
          86, 137, 138, 87, -1,
          87, 138, 139, 88, -1,
          88, 139, 140, 89, -1,
          89, 140, 141, 90, -1,
          90, 141, 142, 91, -1,
          91, 142, 143, 92, -1,
          92, 143, 144, 93, -1,
          93, 144, 145, 94, -1,
          94, 145, 146, 95, -1,
          95, 146, 147, 96, -1,
          96, 147, 148, 97, -1,
          97, 148, 149, 98, -1,
          98, 149, 150, 99, -1,
          99, 150, 151, 100, -1,
          100, 151, 152, 101, -1,
          102, 153, 154, 103, -1,
          103, 154, 155, 104, -1,
          104, 155, 156, 105, -1,
          105, 156, 157, 106, -1,
          106, 157, 158, 107, -1,
          107, 158, 159, 108, -1,
          108, 159, 160, 109, -1,
          109, 160, 161, 110, -1,
          110, 161, 162, 111, -1,
          111, 162, 163, 112, -1,
          112, 163, 164, 113, -1,
          113, 164, 165, 114, -1,
          114, 165, 166, 115, -1,
          115, 166, 167, 116, -1,
          116, 167, 168, 117, -1,
          117, 168, 169, 118, -1,
          118, 169, 170, 119, -1,
          119, 170, 171, 120, -1,
          120, 171, 172, 121, -1,
          121, 172, 173, 122, -1,
          122, 173, 174, 123, -1,
          123, 174, 175, 124, -1,
          124, 175, 176, 125, -1,
          125, 176, 177, 126, -1,
          126, 177, 178, 127, -1,
          127, 178, 179, 128, -1,
          128, 179, 180, 129, -1,
          129, 180, 181, 130, -1,
          130, 181, 182, 131, -1,
          131, 182, 183, 132, -1,
          132, 183, 184, 133, -1,
          133, 184, 185, 134, -1,
          134, 185, 186, 135, -1,
          135, 186, 187, 136, -1,
          136, 187, 188, 137, -1,
          137, 188, 189, 138, -1,
          138, 189, 190, 139, -1,
          139, 190, 191, 140, -1,
          140, 191, 192, 141, -1,
          141, 192, 193, 142, -1,
          142, 193, 194, 143, -1,
          143, 194, 195, 144, -1,
          144, 195, 196, 145, -1,
          145, 196, 197, 146, -1,
          146, 197, 198, 147, -1,
          147, 198, 199, 148, -1,
          148, 199, 200, 149, -1,
          149, 200, 201, 150, -1,
          150, 201, 202, 151, -1,
          151, 202, 203, 152, -1,
          153, 204, 205, 154, -1,
          154, 205, 206, 155, -1,
          155, 206, 207, 156, -1,
          156, 207, 208, 157, -1,
          157, 208, 209, 158, -1,
          158, 209, 210, 159, -1,
          159, 210, 211, 160, -1,
          160, 211, 212, 161, -1,
          161, 212, 213, 162, -1,
          162, 213, 214, 163, -1,
          163, 214, 215, 164, -1,
          164, 215, 216, 165, -1,
          165, 216, 217, 166, -1,
          166, 217, 218, 167, -1,
          167, 218, 219, 168, -1,
          168, 219, 220, 169, -1,
          169, 220, 221, 170, -1,
          170, 221, 222, 171, -1,
          171, 222, 223, 172, -1,
          172, 223, 224, 173, -1,
          173, 224, 225, 174, -1,
          174, 225, 226, 175, -1,
          175, 226, 227, 176, -1,
          176, 227, 228, 177, -1,
          177, 228, 229, 178, -1,
          178, 229, 230, 179, -1,
          179, 230, 231, 180, -1,
          180, 231, 232, 181, -1,
          181, 232, 233, 182, -1,
          182, 233, 234, 183, -1,
          183, 234, 235, 184, -1,
          184, 235, 236, 185, -1,
          185, 236, 237, 186, -1,
          186, 237, 238, 187, -1,
          187, 238, 239, 188, -1,
          188, 239, 240, 189, -1,
          189, 240, 241, 190, -1,
          190, 241, 242, 191, -1,
          191, 242, 243, 192, -1,
          192, 243, 244, 193, -1,
          193, 244, 245, 194, -1,
          194, 245, 246, 195, -1,
          195, 246, 247, 196, -1,
          196, 247, 248, 197, -1,
          197, 248, 249, 198, -1,
          198, 249, 250, 199, -1,
          199, 250, 251, 200, -1,
          200, 251, 252, 201, -1,
          201, 252, 253, 202, -1,
          202, 253, 254, 203, -1,
          204, 255, 256, 205, -1,
          205, 256, 257, 206, -1,
          206, 257, 258, 207, -1,
          207, 258, 259, 208, -1,
          208, 259, 260, 209, -1,
          209, 260, 261, 210, -1,
          210, 261, 262, 211, -1,
          211, 262, 263, 212, -1,
          212, 263, 264, 213, -1,
          213, 264, 265, 214, -1,
          214, 265, 266, 215, -1,
          215, 266, 267, 216, -1,
          216, 267, 268, 217, -1,
          217, 268, 269, 218, -1,
          218, 269, 270, 219, -1,
          219, 270, 271, 220, -1,
          220, 271, 272, 221, -1,
          221, 272, 273, 222, -1,
          222, 273, 274, 223, -1,
          223, 274, 275, 224, -1,
          224, 275, 276, 225, -1,
          225, 276, 277, 226, -1,
          226, 277, 278, 227, -1,
          227, 278, 279, 228, -1,
          228, 279, 280, 229, -1,
          229, 280, 281, 230, -1,
          230, 281, 282, 231, -1,
          231, 282, 283, 232, -1,
          232, 283, 284, 233, -1,
          233, 284, 285, 234, -1,
          234, 285, 286, 235, -1,
          235, 286, 287, 236, -1,
          236, 287, 288, 237, -1,
          237, 288, 289, 238, -1,
          238, 289, 290, 239, -1,
          239, 290, 291, 240, -1,
          240, 291, 292, 241, -1,
          241, 292, 293, 242, -1,
          242, 293, 294, 243, -1,
          243, 294, 295, 244, -1,
          244, 295, 296, 245, -1,
          245, 296, 297, 246, -1,
          246, 297, 298, 247, -1,
          247, 298, 299, 248, -1,
          248, 299, 300, 249, -1,
          249, 300, 301, 250, -1,
          250, 301, 302, 251, -1,
          251, 302, 303, 252, -1,
          252, 303, 304, 253, -1,
          253, 304, 305, 254, -1 ]
        normal Normal { vector [
          0.9286581506508352 -3.0227653677218957e-16 -0.3709367051530091,
          0.9324722294043558 -3.254981788081479e-16 0.361241666187153,
          0.7390089172206591 -3.5804799668896267e-16 0.6736956436465572,
          0.4457383557765382 -3.2549817880814797e-16 0.8951632913550623,
          0.09226835946330186 -2.929483609273331e-16 0.9957341762950345,
          -0.2736629900720827 -2.6039854304651837e-16 0.961825643172819,
          -0.6026346363792563 -1.9529890728488876e-16 0.7980172272802395,
          -0.8502171357296142 -2.7667345198692574e-16 0.5264321628773557,
          -0.9829730996839017 -2.929483609273331e-16 0.18374951781657026,
          -0.9829730996839017 -2.929483609273331e-16 -0.18374951781657037,
          -0.8502171357296142 -2.44123634106111e-16 -0.5264321628773557,
          -0.6026346363792565 -1.6274908940407398e-16 -0.7980172272802395,
          -0.2736629900720832 -1.9529890728488876e-16 -0.9618256431728189,
          0.09226835946330177 -3.2549817880814797e-16 -0.9957341762950345,
          0.4457383557765384 -3.254981788081479e-16 -0.8951632913550621,
          0.7390089172206593 -2.4412363410611094e-16 -0.673695643646557,
          0.9324722294043557 -1.9529890728488876e-16 -0.36124166618715303,
          1.0 -2.2784872516570356e-16 -1.2206181705305547e-16,
          0.9324722294043558 -3.4177308774855535e-16 0.36124166618715287,
          0.739008917220659 -3.7432290562937005e-16 0.6736956436465573,
          0.44573835577653814 -2.4412363410611094e-16 0.8951632913550623,
          0.0922683594633021 -1.7902399834448136e-16 0.9957341762950345,
          -0.27366299007208295 -2.1157381622529619e-16 0.961825643172819,
          -0.6026346363792565 -1.9529890728488876e-16 0.7980172272802395,
          -0.8502171357296141 -1.3019927152325916e-16 0.526432162877356,
          -0.9829730996839017 -9.764945364244437e-17 0.18374951781657056,
          -0.9829730996839019 -1.6274908940407396e-16 -0.18374951781656995,
          -0.8502171357296143 -2.1157381622529616e-16 -0.5264321628773556,
          -0.6026346363792563 -2.1157381622529616e-16 -0.7980172272802395,
          -0.2736629900720829 -1.9529890728488876e-16 -0.961825643172819,
          0.09226835946330182 -1.4647418046366658e-16 -0.9957341762950345,
          0.4457383557765378 -1.9529890728488874e-16 -0.8951632913550626,
          0.739008917220659 -2.4412363410611094e-16 -0.6736956436465574,
          0.9324722294043558 -2.7667345198692574e-16 -0.36124166618715275,
          1.0 -2.1157381622529614e-16 8.137454470203698e-17,
          0.9324722294043558 -1.4647418046366656e-16 0.3612416661871527,
          0.7390089172206594 -2.1157381622529616e-16 0.673695643646557,
          0.4457383557765384 -2.6039854304651837e-16 0.8951632913550622,
          0.09226835946330182 -2.4412363410611094e-16 0.9957341762950345,
          -0.27366299007208283 -2.929483609273331e-16 0.961825643172819,
          -0.6026346363792562 -2.929483609273331e-16 0.7980172272802396,
          -0.850217135729614 -2.766734519869257e-16 0.5264321628773561,
          -0.9829730996839017 -3.2549817880814787e-16 0.18374951781657034,
          -0.9829730996839017 -4.068727235101849e-16 -0.1837495178165707,
          -0.8502171357296143 -3.9059781456977742e-16 -0.5264321628773555,
          -0.602634636379257 -3.743229056293701e-16 -0.798017227280239,
          -0.2736629900720827 -4.068727235101849e-16 -0.961825643172819,
          0.09226835946330213 -3.9059781456977747e-16 -0.9957341762950345,
          0.44573835577653825 -3.7432290562937015e-16 -0.8951632913550623,
          0.7390089172206594 -4.231476324505923e-16 -0.6736956436465569,
          0.9999457295113562 -4.2318715148106515e-16 0.010418158762545605,
          0.4402286586507209 0.7231944067444558 -0.5321546562383171,
          0.5131558189389872 0.8570709712079564 0.04583072988408272,
          0.46194758129195607 0.8570709712079564 0.22810914591739218,
          0.34835076305153284 0.8570709712079564 0.37958015779814575,
          0.18770724398278674 0.8570709712079564 0.479786766041996,
          0.001712821492420302 0.8570709712079564 0.5151955129416265,
          -0.1845129270315692 0.8570709712079565 0.481024251021602,
          -0.34581918233852144 0.8570709712079564 0.3818879985537211,
          -0.46042064082041567 0.8570709712079564 0.23117565576670934,
          -0.512839740480669 0.8570709712079564 0.049241759679873605,
          -0.49599699144590575 0.8570709712079564 -0.13934250890973862,
          -0.41216710030216486 0.8570709712079564 -0.3091077995475941,
          -0.27267175836587104 0.8570709712079564 -0.43712636903110114,
          -0.09635058453589405 0.8570709712079564 -0.5061086001761301,
          0.09298326963267523 0.8570709712079565 -0.5067380604228062,
          0.26975921799926766 0.8570709712079564 -0.4389297376768564,
          0.41010268918763004 0.8570709712079565 -0.3118415216640088,
          0.49505951974375456 0.8570709712079564 -0.1426373801769135,
          0.5131558189389872 0.8570709712079565 0.04583072988408267,
          0.4619475812919558 0.8570709712079565 0.2281091459173924,
          0.3483507630515328 0.8570709712079564 0.37958015779814575,
          0.18770724398278704 0.8570709712079564 0.4797867660419959,
          0.001712821492420302 0.8570709712079565 0.5151955129416262,
          -0.18451292703156905 0.8570709712079564 0.48102425102160207,
          -0.3458191823385212 0.8570709712079566 0.38188799855372096,
          -0.4604206408204157 0.8570709712079564 0.23117565576670934,
          -0.5128397404806689 0.8570709712079565 0.049241759679874146,
          -0.49599699144590553 0.8570709712079565 -0.1393425089097385,
          -0.41216710030216475 0.8570709712079565 -0.3091077995475941,
          -0.27267175836587065 0.8570709712079566 -0.4371263690311012,
          -0.09635058453589398 0.8570709712079565 -0.5061086001761301,
          0.09298326963267443 0.8570709712079565 -0.5067380604228063,
          0.26975921799926744 0.8570709712079564 -0.4389297376768565,
          0.4101026891876302 0.8570709712079564 -0.3118415216640088,
          0.49505951974375456 0.8570709712079565 -0.1426373801769131,
          0.5131558189389872 0.8570709712079564 0.04583072988408274,
          0.46194758129195634 0.8570709712079564 0.22810914591739165,
          0.34835076305153295 0.8570709712079565 0.37958015779814563,
          0.187707243982787 0.8570709712079564 0.47978676604199605,
          0.001712821492420431 0.8570709712079565 0.5151955129416264,
          -0.18451292703156902 0.8570709712079563 0.4810242510216024,
          -0.34581918233852116 0.8570709712079565 0.3818879985537213,
          -0.46042064082041595 0.8570709712079565 0.23117565576670865,
          -0.5128397404806694 0.8570709712079563 0.0492417596798737,
          -0.495996991445906 0.8570709712079563 -0.13934250890973798,
          -0.41216710030216475 0.8570709712079564 -0.30910779954759415,
          -0.2726717583658706 0.8570709712079564 -0.43712636903110147,
          -0.09635058453589444 0.8570709712079563 -0.5061086001761304,
          0.09298326963267492 0.8570709712079565 -0.506738060422806,
          0.2697592179992683 0.8570709712079564 -0.43892973767685595,
          0.5420321086265776 0.8273021789410534 0.14755438975920526,
          -0.3585270542564626 0.6653527605188676 -0.6548007753783636,
          -0.3975233153216673 0.8540853416959742 -0.3354302354823447,
          -0.24950807492301463 0.8540853416959742 -0.4563813642648901,
          -0.0677953864340376 0.854085341695974 -0.5156956609070222,
          0.12307344466006093 0.8540853416959742 -0.5053624009753575,
          0.2973205250793188 0.8540853416959742 -0.42677714848223675,
          0.4314128210767112 0.8540853416959742 -0.2905532772327728,
          0.507240425046728 0.8540853416959742 -0.11508857588173418,
          0.5145623988979597 0.8540853416959742 0.0759194753699466,
          0.4523898694893399 0.8540853416959742 0.25667418078858045,
          0.3291195814273809 0.8540853416959743 0.40276361581098225,
          0.16139987017909663 0.854085341695974 0.49445759272787154,
          -0.028117787884428907 0.8540853416959742 0.5193723318627564,
          -0.21383798288812117 0.854085341695974 0.47414295963813546,
          -0.37067817338560494 0.854085341695974 0.36487795339754686,
          -0.4774562225686976 0.8540853416959742 0.20633415769208274,
          -0.5197511632176265 0.8540853416959742 0.019923790653265668,
          -0.4918508292333972 0.854085341695974 -0.16917739471481003,
          -0.39752331532166757 0.854085341695974 -0.3354302354823447,
          -0.24950807492301494 0.8540853416959742 -0.45638136426489,
          -0.06779538643403762 0.8540853416959742 -0.5156956609070222,
          0.12307344466006105 0.8540853416959742 -0.5053624009753575,
          0.29732052507931883 0.8540853416959742 -0.42677714848223675,
          0.4314128210767114 0.8540853416959742 -0.2905532772327726,
          0.5072404250467281 0.854085341695974 -0.11508857588173446,
          0.5145623988979597 0.8540853416959743 0.07591947536994641,
          0.4523898694893401 0.854085341695974 0.2566741807885807,
          0.32911958142738124 0.8540853416959742 0.40276361581098197,
          0.16139987017909654 0.854085341695974 0.4944575927278716,
          -0.02811778788442881 0.854085341695974 0.5193723318627566,
          -0.21383798288812117 0.8540853416959742 0.47414295963813546,
          -0.3706781733856051 0.854085341695974 0.36487795339754686,
          -0.4774562225686975 0.8540853416959742 0.20633415769208296,
          -0.5197511632176265 0.8540853416959742 0.01992379065326549,
          -0.4918508292333973 0.8540853416959742 -0.16917739471480975,
          -0.39752331532166746 0.8540853416959742 -0.3354302354823444,
          -0.2495080749230145 0.8540853416959739 -0.4563813642648904,
          -0.06779538643403792 0.854085341695974 -0.5156956609070225,
          0.12307344466006113 0.854085341695974 -0.5053624009753572,
          0.29732052507931894 0.8540853416959739 -0.426777148482237,
          0.4314128210767113 0.854085341695974 -0.29055327723277274,
          0.5072404250467283 0.8540853416959739 -0.11508857588173442,
          0.5145623988979597 0.8540853416959742 0.07591947536994563,
          0.4523898694893399 0.8540853416959742 0.25667418078858095,
          0.3291195814273812 0.8540853416959738 0.40276361581098274,
          0.16139987017909738 0.854085341695974 0.49445759272787143,
          -0.028117787884428813 0.8540853416959742 0.5193723318627567,
          -0.21383798288812203 0.854085341695974 0.4741429596381355,
          -0.370678173385605 0.8540853416959739 0.36487795339754736,
          -0.47745622256869724 0.8540853416959742 0.20633415769208324,
          -0.27371422445568533 0.7621878425961838 0.5866431759845141,
          -0.7900505897699489 2.0665940079585327e-16 -0.613041650790675,
          -0.9324722294043557 2.615774274100972e-16 -0.361241666187153,
          -0.7390089172206591 1.9618307055757288e-16 -0.6736956436465572,
          -0.4457383557765383 1.4713730291817968e-16 -0.8951632913550623,
          -0.09226835946330186 1.7983448134444182e-16 -0.9957341762950346,
          0.2736629900720828 1.9618307055757288e-16 -0.9618256431728192,
          0.6026346363792563 1.7983448134444182e-16 -0.7980172272802395,
          0.8502171357296141 1.6348589213131071e-16 -0.5264321628773558,
          0.9829730996839018 2.2888024898383503e-16 -0.18374951781657034,
          0.9829730996839018 1.798344813444418e-16 0.18374951781657028,
          0.8502171357296142 8.174294606565536e-17 0.5264321628773557,
          0.6026346363792565 8.174294606565536e-17 0.7980172272802394,
          0.2736629900720832 1.3078871370504857e-16 0.9618256431728189,
          -0.09226835946330182 1.1444012449191751e-16 0.9957341762950346,
          -0.44573835577653836 8.174294606565536e-17 0.8951632913550623,
          -0.7390089172206591 1.6348589213131071e-16 0.6736956436465572,
          -0.9324722294043557 1.961830705575729e-16 0.36124166618715303,
          -1.0 1.6348589213131076e-16 -1.4305015561489692e-17,
          -0.9324722294043558 1.3078871370504857e-16 -0.36124166618715287,
          -0.7390089172206591 1.6348589213131071e-16 -0.6736956436465572,
          -0.44573835577653814 2.1253165977070394e-16 -0.8951632913550625,
          -0.09226835946330206 2.452288381969661e-16 -0.9957341762950345,
          0.2736629900720829 2.1253165977070397e-16 -0.9618256431728192,
          0.6026346363792564 1.9618307055757288e-16 -0.7980172272802394,
          0.8502171357296141 1.3078871370504857e-16 -0.5264321628773558,
          0.9829730996839017 1.1444012449191751e-16 -0.1837495178165705,
          0.9829730996839018 1.4713730291817966e-16 0.18374951781657,
          0.8502171357296143 2.1253165977070394e-16 0.5264321628773556,
          0.6026346363792564 1.9618307055757288e-16 0.7980172272802394,
          0.27366299007208283 1.7983448134444182e-16 0.9618256431728192,
          -0.09226835946330188 2.1253165977070397e-16 0.9957341762950346,
          -0.44573835577653786 1.961830705575729e-16 0.8951632913550626,
          -0.739008917220659 2.615774274100972e-16 0.6736956436465573,
          -0.9324722294043558 2.2888024898383507e-16 0.36124166618715287,
          -1.0 2.1253165977070394e-16 -7.152507780744844e-17,
          -0.9324722294043559 1.798344813444418e-16 -0.3612416661871527,
          -0.7390089172206593 1.4713730291817968e-16 -0.6736956436465571,
          -0.44573835577653836 9.809153527878644e-17 -0.8951632913550623,
          -0.09226835946330188 9.809153527878645e-17 -0.9957341762950346,
          0.27366299007208283 3.2697178426262137e-17 -0.961825643172819,
          0.6026346363792562 0.0 -0.7980172272802397,
          0.850217135729614 -1.634858921313107e-17 -0.5264321628773562,
          0.9829730996839018 -4.904576763939322e-17 -0.18374951781657037,
          0.9829730996839018 0.0 0.1837495178165706,
          0.8502171357296145 0.0 0.5264321628773553,
          0.6026346363792568 0.0 0.7980172272802392,
          0.27366299007208256 1.144401244919175e-16 0.9618256431728192,
          -0.09226835946330188 9.80915352787864e-17 0.9957341762950345,
          -0.4457383557765379 -1.3078871370504857e-16 0.8951632913550625,
          -0.7390089172206593 -2.6157742741009714e-16 0.673695643646557,
          -0.5152440474112647 -2.8415667609429826e-16 0.857043506251146,
          -0.4671508714478462 -0.7621878425961837 -0.4481514876736358,
          -0.519751163217627 -0.8540853416959739 -0.01992379065326596,
          -0.4774562225686981 -0.8540853416959738 -0.20633415769208294,
          -0.37067817338560527 -0.8540853416959738 -0.36487795339754714,
          -0.21383798288812134 -0.8540853416959738 -0.47414295963813596,
          -0.028117787884428966 -0.8540853416959738 -0.5193723318627571,
          0.16139987017909707 -0.8540853416959738 -0.4944575927278721,
          0.32911958142738157 -0.8540853416959738 -0.4027636158109826,
          0.4523898694893405 -0.8540853416959738 -0.2566741807885807,
          0.5145623988979602 -0.8540853416959739 -0.07591947536994646,
          0.5072404250467284 -0.8540853416959738 0.1150885758817344,
          0.4314128210767117 -0.8540853416959738 0.2905532772327729,
          0.29732052507931905 -0.8540853416959738 0.42677714848223713,
          0.12307344466006075 -0.8540853416959739 0.5053624009753579,
          -0.06779538643403815 -0.8540853416959739 0.5156956609070228,
          -0.24950807492301508 -0.8540853416959738 0.4563813642648904,
          -0.39752331532166774 -0.8540853416959738 0.3354302354823451,
          -0.4918508292333975 -0.8540853416959738 0.16917739471480994,
          -0.5197511632176268 -0.8540853416959739 -0.019923790653265976,
          -0.47745622256869774 -0.8540853416959739 -0.20633415769208324,
          -0.3706781733856052 -0.8540853416959739 -0.36487795339754736,
          -0.2138379828881217 -0.8540853416959737 -0.47414295963813596,
          -0.028117787884428872 -0.8540853416959739 -0.5193723318627571,
          0.16139987017909702 -0.8540853416959738 -0.49445759272787215,
          0.32911958142738135 -0.8540853416959739 -0.40276361581098247,
          0.45238986948934057 -0.8540853416959738 -0.2566741807885806,
          0.5145623988979602 -0.8540853416959738 -0.07591947536994688,
          0.5072404250467285 -0.8540853416959739 0.1150885758817346,
          0.4314128210767118 -0.8540853416959738 0.29055327723277313,
          0.2973205250793187 -0.8540853416959739 0.4267771484822373,
          0.12307344466006073 -0.8540853416959738 0.505362400975358,
          -0.0677953864340374 -0.8540853416959739 0.5156956609070229,
          -0.24950807492301508 -0.8540853416959739 0.4563813642648904,
          -0.3975233153216679 -0.8540853416959738 0.335430235482345,
          -0.4918508292333976 -0.8540853416959739 0.1691773947148097,
          -0.5197511632176272 -0.8540853416959738 -0.019923790653266105,
          -0.4774562225686983 -0.8540853416959739 -0.20633415769208277,
          -0.3706781733856052 -0.8540853416959739 -0.36487795339754736,
          -0.21383798288812159 -0.8540853416959738 -0.47414295963813596,
          -0.028117787884428754 -0.8540853416959739 -0.5193723318627569,
          0.16139987017909696 -0.8540853416959737 -0.49445759272787226,
          0.3291195814273811 -0.8540853416959739 -0.4027636158109827,
          0.4523898694893407 -0.854085341695974 -0.25667418078857984,
          0.5145623988979605 -0.8540853416959738 -0.07591947536994653,
          0.5072404250467288 -0.8540853416959737 0.1150885758817336,
          0.4314128210767114 -0.8540853416959738 0.2905532772327732,
          0.29732052507931833 -0.8540853416959738 0.4267771484822375,
          0.12307344466006169 -0.8540853416959737 0.505362400975358,
          -0.06779538643403761 -0.8540853416959738 0.5156956609070227,
          -0.2495080749230161 -0.8540853416959738 0.4563813642648899,
          -0.09777519846598154 -0.6653527605188673 0.7400984492855398,
          0.4521270951299242 -0.8273021789410537 -0.33339495282436565,
          0.41010268918762965 -0.8570709712079567 0.3118415216640085,
          0.269759217999267 -0.8570709712079567 0.4389297376768562,
          0.09298326963267459 -0.8570709712079567 0.5067380604228057,
          -0.09635058453589412 -0.8570709712079567 0.5061086001761296,
          -0.27267175836587065 -0.8570709712079567 0.43712636903110075,
          -0.4121671003021644 -0.8570709712079567 0.3091077995475938,
          -0.49599699144590514 -0.8570709712079567 0.13934250890973826,
          -0.5128397404806685 -0.8570709712079567 -0.049241759679873945,
          -0.46042064082041523 -0.8570709712079566 -0.23117565576670923,
          -0.3458191823385209 -0.8570709712079567 -0.38188799855372085,
          -0.18451292703156877 -0.8570709712079566 -0.48102425102160173,
          0.001712821492420293 -0.8570709712079567 -0.5151955129416259,
          0.18770724398278654 -0.8570709712079567 -0.4797867660419953,
          0.34835076305153256 -0.8570709712079567 -0.37958015779814513,
          0.4619475812919556 -0.8570709712079567 -0.22810914591739168,
          0.5131558189389868 -0.8570709712079567 -0.0458307298840823,
          0.4950595197437542 -0.8570709712079567 0.14263738017691338,
          0.4101026891876297 -0.8570709712079567 0.3118415216640085,
          0.26975921799926716 -0.8570709712079567 0.4389297376768561,
          0.09298326963267461 -0.8570709712079567 0.5067380604228059,
          -0.09635058453589425 -0.8570709712079567 0.5061086001761296,
          -0.2726717583658707 -0.8570709712079567 0.4371263690311007,
          -0.4121671003021644 -0.8570709712079567 0.3091077995475935,
          -0.49599699144590514 -0.8570709712079567 0.1393425089097385,
          -0.5128397404806684 -0.8570709712079567 -0.049241759679873674,
          -0.46042064082041523 -0.8570709712079566 -0.2311756557667093,
          -0.34581918233852094 -0.8570709712079567 -0.3818879985537206,
          -0.1845129270315686 -0.8570709712079567 -0.4810242510216015,
          0.0017128214924202853 -0.8570709712079567 -0.5151955129416257,
          0.18770724398278665 -0.8570709712079568 -0.4797867660419952,
          0.34835076305153273 -0.8570709712079566 -0.379580157798145,
          0.4619475812919554 -0.8570709712079567 -0.22810914591739193,
          0.5131558189389867 -0.8570709712079567 -0.0458307298840822,
          0.49505951974375423 -0.8570709712079567 0.14263738017691324,
          0.4101026891876295 -0.8570709712079567 0.31184152166400825,
          0.26975921799926694 -0.8570709712079567 0.4389297376768562,
          0.09298326963267474 -0.8570709712079567 0.5067380604228057,
          -0.09635058453589439 -0.8570709712079567 0.5061086001761295,
          -0.2726717583658706 -0.8570709712079567 0.4371263690311008,
          -0.41216710030216436 -0.8570709712079568 0.3091077995475936,
          -0.49599699144590537 -0.8570709712079566 0.13934250890973832,
          -0.5128397404806684 -0.8570709712079567 -0.04924175967987314,
          -0.46042064082041484 -0.8570709712079567 -0.23117565576670965,
          -0.3458191823385207 -0.8570709712079566 -0.38188799855372124,
          -0.18451292703156932 -0.8570709712079567 -0.48102425102160135,
          0.0017128214924201101 -0.8570709712079567 -0.5151955129416259,
          0.1877072439827876 -0.8570709712079566 -0.4797867660419952,
          0.3483507630515326 -0.8570709712079567 -0.3795801577981451,
          0.4619475812919548 -0.8570709712079572 -0.2281091459173917,
          0.6027374334685073 -0.7231944067444561 0.33719050453613136 ] }
        normalIndex [
          0, 1, 256, 255, -1,
          0, 51, 52, 1, -1,
          0, 255, 204, 153, 102, 51, -1,
          1, 2, 257, 256, -1,
          1, 52, 53, 2, -1,
          2, 3, 258, 257, -1,
          2, 53, 54, 3, -1,
          3, 4, 259, 258, -1,
          3, 54, 55, 4, -1,
          4, 5, 260, 259, -1,
          4, 55, 56, 5, -1,
          5, 6, 261, 260, -1,
          5, 56, 57, 6, -1,
          6, 7, 262, 261, -1,
          6, 57, 58, 7, -1,
          7, 8, 263, 262, -1,
          7, 58, 59, 8, -1,
          8, 9, 264, 263, -1,
          8, 59, 60, 9, -1,
          9, 10, 265, 264, -1,
          9, 60, 61, 10, -1,
          10, 11, 266, 265, -1,
          10, 61, 62, 11, -1,
          11, 12, 267, 266, -1,
          11, 62, 63, 12, -1,
          12, 13, 268, 267, -1,
          12, 63, 64, 13, -1,
          13, 14, 269, 268, -1,
          13, 64, 65, 14, -1,
          14, 15, 270, 269, -1,
          14, 65, 66, 15, -1,
          15, 16, 271, 270, -1,
          15, 66, 67, 16, -1,
          16, 17, 272, 271, -1,
          16, 67, 68, 17, -1,
          17, 18, 273, 272, -1,
          17, 68, 69, 18, -1,
          18, 19, 274, 273, -1,
          18, 69, 70, 19, -1,
          19, 20, 275, 274, -1,
          19, 70, 71, 20, -1,
          20, 21, 276, 275, -1,
          20, 71, 72, 21, -1,
          21, 22, 277, 276, -1,
          21, 72, 73, 22, -1,
          22, 23, 278, 277, -1,
          22, 73, 74, 23, -1,
          23, 24, 279, 278, -1,
          23, 74, 75, 24, -1,
          24, 25, 280, 279, -1,
          24, 75, 76, 25, -1,
          25, 26, 281, 280, -1,
          25, 76, 77, 26, -1,
          26, 27, 282, 281, -1,
          26, 77, 78, 27, -1,
          27, 28, 283, 282, -1,
          27, 78, 79, 28, -1,
          28, 29, 284, 283, -1,
          28, 79, 80, 29, -1,
          29, 30, 285, 284, -1,
          29, 80, 81, 30, -1,
          30, 31, 286, 285, -1,
          30, 81, 82, 31, -1,
          31, 32, 287, 286, -1,
          31, 82, 83, 32, -1,
          32, 33, 288, 287, -1,
          32, 83, 84, 33, -1,
          33, 34, 289, 288, -1,
          33, 84, 85, 34, -1,
          34, 35, 290, 289, -1,
          34, 85, 86, 35, -1,
          35, 36, 291, 290, -1,
          35, 86, 87, 36, -1,
          36, 37, 292, 291, -1,
          36, 87, 88, 37, -1,
          37, 38, 293, 292, -1,
          37, 88, 89, 38, -1,
          38, 39, 294, 293, -1,
          38, 89, 90, 39, -1,
          39, 40, 295, 294, -1,
          39, 90, 91, 40, -1,
          40, 41, 296, 295, -1,
          40, 91, 92, 41, -1,
          41, 42, 297, 296, -1,
          41, 92, 93, 42, -1,
          42, 43, 298, 297, -1,
          42, 93, 94, 43, -1,
          43, 44, 299, 298, -1,
          43, 94, 95, 44, -1,
          44, 45, 300, 299, -1,
          44, 95, 96, 45, -1,
          45, 46, 301, 300, -1,
          45, 96, 97, 46, -1,
          46, 47, 302, 301, -1,
          46, 97, 98, 47, -1,
          47, 48, 303, 302, -1,
          47, 98, 99, 48, -1,
          48, 49, 304, 303, -1,
          48, 99, 100, 49, -1,
          49, 50, 305, 304, -1,
          49, 100, 101, 50, -1,
          50, 101, 152, 203, 254, 305, -1,
          51, 102, 103, 52, -1,
          52, 103, 104, 53, -1,
          53, 104, 105, 54, -1,
          54, 105, 106, 55, -1,
          55, 106, 107, 56, -1,
          56, 107, 108, 57, -1,
          57, 108, 109, 58, -1,
          58, 109, 110, 59, -1,
          59, 110, 111, 60, -1,
          60, 111, 112, 61, -1,
          61, 112, 113, 62, -1,
          62, 113, 114, 63, -1,
          63, 114, 115, 64, -1,
          64, 115, 116, 65, -1,
          65, 116, 117, 66, -1,
          66, 117, 118, 67, -1,
          67, 118, 119, 68, -1,
          68, 119, 120, 69, -1,
          69, 120, 121, 70, -1,
          70, 121, 122, 71, -1,
          71, 122, 123, 72, -1,
          72, 123, 124, 73, -1,
          73, 124, 125, 74, -1,
          74, 125, 126, 75, -1,
          75, 126, 127, 76, -1,
          76, 127, 128, 77, -1,
          77, 128, 129, 78, -1,
          78, 129, 130, 79, -1,
          79, 130, 131, 80, -1,
          80, 131, 132, 81, -1,
          81, 132, 133, 82, -1,
          82, 133, 134, 83, -1,
          83, 134, 135, 84, -1,
          84, 135, 136, 85, -1,
          85, 136, 137, 86, -1,
          86, 137, 138, 87, -1,
          87, 138, 139, 88, -1,
          88, 139, 140, 89, -1,
          89, 140, 141, 90, -1,
          90, 141, 142, 91, -1,
          91, 142, 143, 92, -1,
          92, 143, 144, 93, -1,
          93, 144, 145, 94, -1,
          94, 145, 146, 95, -1,
          95, 146, 147, 96, -1,
          96, 147, 148, 97, -1,
          97, 148, 149, 98, -1,
          98, 149, 150, 99, -1,
          99, 150, 151, 100, -1,
          100, 151, 152, 101, -1,
          102, 153, 154, 103, -1,
          103, 154, 155, 104, -1,
          104, 155, 156, 105, -1,
          105, 156, 157, 106, -1,
          106, 157, 158, 107, -1,
          107, 158, 159, 108, -1,
          108, 159, 160, 109, -1,
          109, 160, 161, 110, -1,
          110, 161, 162, 111, -1,
          111, 162, 163, 112, -1,
          112, 163, 164, 113, -1,
          113, 164, 165, 114, -1,
          114, 165, 166, 115, -1,
          115, 166, 167, 116, -1,
          116, 167, 168, 117, -1,
          117, 168, 169, 118, -1,
          118, 169, 170, 119, -1,
          119, 170, 171, 120, -1,
          120, 171, 172, 121, -1,
          121, 172, 173, 122, -1,
          122, 173, 174, 123, -1,
          123, 174, 175, 124, -1,
          124, 175, 176, 125, -1,
          125, 176, 177, 126, -1,
          126, 177, 178, 127, -1,
          127, 178, 179, 128, -1,
          128, 179, 180, 129, -1,
          129, 180, 181, 130, -1,
          130, 181, 182, 131, -1,
          131, 182, 183, 132, -1,
          132, 183, 184, 133, -1,
          133, 184, 185, 134, -1,
          134, 185, 186, 135, -1,
          135, 186, 187, 136, -1,
          136, 187, 188, 137, -1,
          137, 188, 189, 138, -1,
          138, 189, 190, 139, -1,
          139, 190, 191, 140, -1,
          140, 191, 192, 141, -1,
          141, 192, 193, 142, -1,
          142, 193, 194, 143, -1,
          143, 194, 195, 144, -1,
          144, 195, 196, 145, -1,
          145, 196, 197, 146, -1,
          146, 197, 198, 147, -1,
          147, 198, 199, 148, -1,
          148, 199, 200, 149, -1,
          149, 200, 201, 150, -1,
          150, 201, 202, 151, -1,
          151, 202, 203, 152, -1,
          153, 204, 205, 154, -1,
          154, 205, 206, 155, -1,
          155, 206, 207, 156, -1,
          156, 207, 208, 157, -1,
          157, 208, 209, 158, -1,
          158, 209, 210, 159, -1,
          159, 210, 211, 160, -1,
          160, 211, 212, 161, -1,
          161, 212, 213, 162, -1,
          162, 213, 214, 163, -1,
          163, 214, 215, 164, -1,
          164, 215, 216, 165, -1,
          165, 216, 217, 166, -1,
          166, 217, 218, 167, -1,
          167, 218, 219, 168, -1,
          168, 219, 220, 169, -1,
          169, 220, 221, 170, -1,
          170, 221, 222, 171, -1,
          171, 222, 223, 172, -1,
          172, 223, 224, 173, -1,
          173, 224, 225, 174, -1,
          174, 225, 226, 175, -1,
          175, 226, 227, 176, -1,
          176, 227, 228, 177, -1,
          177, 228, 229, 178, -1,
          178, 229, 230, 179, -1,
          179, 230, 231, 180, -1,
          180, 231, 232, 181, -1,
          181, 232, 233, 182, -1,
          182, 233, 234, 183, -1,
          183, 234, 235, 184, -1,
          184, 235, 236, 185, -1,
          185, 236, 237, 186, -1,
          186, 237, 238, 187, -1,
          187, 238, 239, 188, -1,
          188, 239, 240, 189, -1,
          189, 240, 241, 190, -1,
          190, 241, 242, 191, -1,
          191, 242, 243, 192, -1,
          192, 243, 244, 193, -1,
          193, 244, 245, 194, -1,
          194, 245, 246, 195, -1,
          195, 246, 247, 196, -1,
          196, 247, 248, 197, -1,
          197, 248, 249, 198, -1,
          198, 249, 250, 199, -1,
          199, 250, 251, 200, -1,
          200, 251, 252, 201, -1,
          201, 252, 253, 202, -1,
          202, 253, 254, 203, -1,
          204, 255, 256, 205, -1,
          205, 256, 257, 206, -1,
          206, 257, 258, 207, -1,
          207, 258, 259, 208, -1,
          208, 259, 260, 209, -1,
          209, 260, 261, 210, -1,
          210, 261, 262, 211, -1,
          211, 262, 263, 212, -1,
          212, 263, 264, 213, -1,
          213, 264, 265, 214, -1,
          214, 265, 266, 215, -1,
          215, 266, 267, 216, -1,
          216, 267, 268, 217, -1,
          217, 268, 269, 218, -1,
          218, 269, 270, 219, -1,
          219, 270, 271, 220, -1,
          220, 271, 272, 221, -1,
          221, 272, 273, 222, -1,
          222, 273, 274, 223, -1,
          223, 274, 275, 224, -1,
          224, 275, 276, 225, -1,
          225, 276, 277, 226, -1,
          226, 277, 278, 227, -1,
          227, 278, 279, 228, -1,
          228, 279, 280, 229, -1,
          229, 280, 281, 230, -1,
          230, 281, 282, 231, -1,
          231, 282, 283, 232, -1,
          232, 283, 284, 233, -1,
          233, 284, 285, 234, -1,
          234, 285, 286, 235, -1,
          235, 286, 287, 236, -1,
          236, 287, 288, 237, -1,
          237, 288, 289, 238, -1,
          238, 289, 290, 239, -1,
          239, 290, 291, 240, -1,
          240, 291, 292, 241, -1,
          241, 292, 293, 242, -1,
          242, 293, 294, 243, -1,
          243, 294, 295, 244, -1,
          244, 295, 296, 245, -1,
          245, 296, 297, 246, -1,
          246, 297, 298, 247, -1,
          247, 298, 299, 248, -1,
          248, 299, 300, 249, -1,
          249, 300, 301, 250, -1,
          250, 301, 302, 251, -1,
          251, 302, 303, 252, -1,
          252, 303, 304, 253, -1,
          253, 304, 305, 254, -1 ]
        color Color { color [
          1.0 0.5666666666666667 0.0,
          1.0 1.0 1.0 ] }
        colorIndex [
          0, 0, 0, 0, -1,
          0, 0, 0, 0, -1,
          0, 0, 0, 0, 0, 0, -1,
          0, 0, 0, 0, -1,
          0, 0, 0, 0, -1,
          0, 0, 0, 0, -1,
          0, 0, 0, 0, -1,
          0, 0, 0, 0, -1,
          0, 0, 0, 0, -1,
          0, 0, 0, 0, -1,
          0, 0, 0, 0, -1,
          0, 0, 0, 0, -1,
          0, 0, 0, 0, -1,
          0, 0, 0, 0, -1,
          0, 0, 0, 0, -1,
          0, 0, 0, 0, -1,
          0, 0, 0, 0, -1,
          0, 0, 0, 0, -1,
          0, 0, 0, 0, -1,
          0, 0, 0, 0, -1,
          0, 0, 0, 0, -1,
          0, 0, 0, 0, -1,
          0, 0, 0, 0, -1,
          0, 0, 0, 0, -1,
          0, 0, 0, 0, -1,
          0, 0, 0, 0, -1,
          0, 0, 0, 0, -1,
          0, 0, 0, 0, -1,
          0, 0, 0, 0, -1,
          0, 0, 0, 0, -1,
          0, 0, 0, 0, -1,
          0, 0, 0, 0, -1,
          0, 0, 0, 0, -1,
          0, 0, 0, 0, -1,
          0, 0, 0, 0, -1,
          0, 0, 0, 0, -1,
          0, 0, 0, 0, -1,
          0, 0, 0, 0, -1,
          0, 0, 0, 0, -1,
          0, 0, 0, 0, -1,
          0, 0, 0, 0, -1,
          0, 0, 0, 0, -1,
          0, 0, 0, 0, -1,
          0, 0, 0, 0, -1,
          0, 0, 0, 0, -1,
          0, 0, 0, 0, -1,
          0, 0, 0, 0, -1,
          0, 0, 0, 0, -1,
          0, 0, 0, 0, -1,
          0, 0, 0, 0, -1,
          0, 0, 0, 0, -1,
          0, 0, 0, 0, -1,
          0, 0, 0, 0, -1,
          0, 0, 0, 0, -1,
          0, 0, 0, 0, -1,
          0, 0, 0, 0, -1,
          0, 0, 0, 0, -1,
          0, 0, 0, 0, -1,
          0, 0, 0, 0, -1,
          0, 0, 0, 0, -1,
          0, 0, 0, 0, -1,
          0, 0, 0, 0, -1,
          0, 0, 0, 0, -1,
          0, 0, 0, 0, -1,
          0, 0, 0, 0, -1,
          0, 0, 0, 0, -1,
          0, 0, 0, 0, -1,
          0, 0, 0, 0, -1,
          0, 0, 0, 0, -1,
          0, 0, 0, 0, -1,
          0, 0, 0, 0, -1,
          0, 0, 0, 0, -1,
          0, 0, 0, 0, -1,
          0, 0, 0, 0, -1,
          0, 0, 0, 0, -1,
          0, 0, 0, 0, -1,
          0, 0, 0, 0, -1,
          0, 0, 0, 0, -1,
          0, 0, 0, 0, -1,
          0, 0, 0, 0, -1,
          0, 0, 0, 0, -1,
          0, 0, 0, 0, -1,
          0, 0, 0, 0, -1,
          0, 0, 0, 0, -1,
          0, 0, 0, 0, -1,
          0, 0, 0, 0, -1,
          0, 0, 0, 0, -1,
          0, 0, 0, 0, -1,
          0, 0, 0, 0, -1,
          0, 0, 0, 0, -1,
          0, 0, 0, 0, -1,
          0, 0, 0, 0, -1,
          0, 0, 0, 0, -1,
          0, 0, 0, 0, -1,
          0, 0, 0, 0, -1,
          0, 0, 0, 0, -1,
          0, 0, 0, 0, -1,
          0, 0, 0, 0, -1,
          0, 0, 0, 0, -1,
          0, 0, 0, 0, -1,
          0, 0, 0, 0, -1,
          0, 0, 0, 0, 0, 0, -1,
          0, 0, 0, 0, -1,
          0, 0, 0, 0, -1,
          0, 0, 0, 0, -1,
          0, 0, 0, 0, -1,
          0, 0, 0, 0, -1,
          0, 0, 0, 0, -1,
          0, 0, 0, 0, -1,
          0, 0, 0, 0, -1,
          0, 0, 0, 0, -1,
          0, 0, 0, 0, -1,
          0, 0, 0, 0, -1,
          0, 0, 0, 0, -1,
          0, 0, 0, 0, -1,
          0, 0, 0, 0, -1,
          0, 0, 0, 0, -1,
          0, 0, 0, 0, -1,
          0, 0, 0, 0, -1,
          0, 0, 0, 0, -1,
          0, 0, 0, 0, -1,
          0, 0, 0, 0, -1,
          0, 0, 0, 0, -1,
          0, 0, 0, 0, -1,
          0, 0, 0, 0, -1,
          0, 0, 0, 0, -1,
          0, 0, 0, 0, -1,
          0, 0, 0, 0, -1,
          0, 0, 0, 0, -1,
          0, 0, 0, 0, -1,
          0, 0, 0, 0, -1,
          0, 0, 0, 0, -1,
          0, 0, 0, 0, -1,
          0, 0, 0, 0, -1,
          0, 0, 0, 0, -1,
          0, 0, 0, 0, -1,
          0, 0, 0, 0, -1,
          0, 0, 0, 0, -1,
          0, 0, 0, 0, -1,
          0, 0, 0, 0, -1,
          0, 0, 0, 0, -1,
          0, 0, 0, 0, -1,
          0, 0, 0, 0, -1,
          0, 0, 0, 0, -1,
          0, 0, 0, 0, -1,
          0, 0, 0, 0, -1,
          0, 0, 0, 0, -1,
          0, 0, 0, 0, -1,
          0, 0, 0, 0, -1,
          0, 0, 0, 0, -1,
          0, 0, 0, 0, -1,
          0, 0, 0, 0, -1,
          0, 0, 0, 0, -1,
          0, 0, 0, 0, -1,
          0, 0, 0, 0, -1,
          0, 0, 0, 0, -1,
          0, 0, 0, 0, -1,
          0, 0, 0, 0, -1,
          0, 0, 0, 0, -1,
          0, 0, 0, 0, -1,
          0, 0, 0, 0, -1,
          0, 0, 0, 0, -1,
          0, 0, 0, 0, -1,
          0, 0, 0, 0, -1,
          0, 0, 0, 0, -1,
          0, 0, 0, 0, -1,
          0, 0, 0, 0, -1,
          0, 0, 0, 0, -1,
          0, 0, 0, 0, -1,
          0, 0, 0, 0, -1,
          0, 0, 0, 0, -1,
          0, 0, 0, 0, -1,
          0, 0, 0, 0, -1,
          0, 0, 0, 0, -1,
          0, 0, 0, 0, -1,
          0, 0, 0, 0, -1,
          0, 0, 0, 0, -1,
          0, 0, 0, 0, -1,
          0, 0, 0, 0, -1,
          0, 0, 0, 0, -1,
          0, 0, 0, 0, -1,
          0, 0, 0, 0, -1,
          0, 0, 0, 0, -1,
          0, 0, 0, 0, -1,
          0, 0, 0, 0, -1,
          0, 0, 0, 0, -1,
          0, 0, 0, 0, -1,
          0, 0, 0, 0, -1,
          0, 0, 0, 0, -1,
          0, 0, 0, 0, -1,
          0, 0, 0, 0, -1,
          0, 0, 0, 0, -1,
          0, 0, 0, 0, -1,
          0, 0, 0, 0, -1,
          0, 0, 0, 0, -1,
          0, 0, 0, 0, -1,
          0, 0, 0, 0, -1,
          0, 0, 0, 0, -1,
          0, 0, 0, 0, -1,
          0, 0, 0, 0, -1,
          0, 0, 0, 0, -1,
          0, 0, 0, 0, -1,
          0, 0, 0, 0, -1,
          0, 0, 0, 0, -1,
          0, 0, 0, 0, -1,
          0, 0, 0, 0, -1,
          0, 0, 0, 0, -1,
          0, 0, 0, 0, -1,
          0, 0, 0, 0, -1,
          0, 0, 0, 0, -1,
          0, 0, 0, 0, -1,
          0, 0, 0, 0, -1,
          0, 0, 0, 0, -1,
          0, 0, 0, 0, -1,
          0, 0, 0, 0, -1,
          0, 0, 0, 0, -1,
          0, 0, 0, 0, -1,
          0, 0, 0, 0, -1,
          0, 0, 0, 0, -1,
          0, 0, 0, 0, -1,
          0, 0, 0, 0, -1,
          0, 0, 0, 0, -1,
          0, 0, 0, 0, -1,
          0, 0, 0, 0, -1,
          0, 0, 0, 0, -1,
          0, 0, 0, 0, -1,
          0, 0, 0, 0, -1,
          0, 0, 0, 0, -1,
          0, 0, 0, 0, -1,
          0, 0, 0, 0, -1,
          0, 0, 0, 0, -1,
          0, 0, 0, 0, -1,
          0, 0, 0, 0, -1,
          0, 0, 0, 0, -1,
          0, 0, 0, 0, -1,
          0, 0, 0, 0, -1,
          0, 0, 0, 0, -1,
          0, 0, 0, 0, -1,
          0, 0, 0, 0, -1,
          0, 0, 0, 0, -1,
          0, 0, 0, 0, -1,
          0, 0, 0, 0, -1,
          0, 0, 0, 0, -1,
          0, 0, 0, 0, -1,
          0, 0, 0, 0, -1,
          0, 0, 0, 0, -1,
          0, 0, 0, 0, -1,
          0, 0, 0, 0, -1,
          0, 0, 0, 0, -1,
          0, 0, 0, 0, -1,
          0, 0, 0, 0, -1,
          0, 0, 0, 0, -1,
          0, 0, 0, 0, -1,
          0, 0, 0, 0, -1,
          0, 0, 0, 0, -1,
          0, 0, 0, 0, -1,
          0, 0, 0, 0, -1,
          0, 0, 0, 0, -1,
          0, 0, 0, 0, -1,
          0, 0, 0, 0, -1,
          0, 0, 0, 0, -1,
          0, 0, 0, 0, -1,
          0, 0, 0, 0, -1,
          0, 0, 0, 0, -1,
          0, 0, 0, 0, -1,
          0, 0, 0, 0, -1,
          0, 0, 0, 0, -1,
          0, 0, 0, 0, -1,
          0, 0, 0, 0, -1,
          0, 0, 0, 0, -1,
          0, 0, 0, 0, -1,
          0, 0, 0, 0, -1,
          0, 0, 0, 0, -1,
          0, 0, 0, 0, -1,
          0, 0, 0, 0, -1,
          0, 0, 0, 0, -1,
          0, 0, 0, 0, -1,
          0, 0, 0, 0, -1,
          0, 0, 0, 0, -1,
          0, 0, 0, 0, -1,
          0, 0, 0, 0, -1,
          0, 0, 0, 0, -1,
          0, 0, 0, 0, -1,
          0, 0, 0, 0, -1,
          0, 0, 0, 0, -1,
          0, 0, 0, 0, -1,
          0, 0, 0, 0, -1,
          0, 0, 0, 0, -1,
          0, 0, 0, 0, -1,
          0, 0, 0, 0, -1,
          0, 0, 0, 0, -1,
          0, 0, 0, 0, -1,
          0, 0, 0, 0, -1,
          0, 0, 0, 0, -1,
          0, 0, 0, 0, -1,
          0, 0, 0, 0, -1,
          0, 0, 0, 0, -1,
          0, 0, 0, 0, -1,
          0, 0, 0, 0, -1,
          0, 0, 0, 0, -1,
          0, 0, 0, 0, -1,
          0, 0, 0, 0, -1 ]
      }
    }
  ]
}

